#define __kr_prefixEach1(_Prefix, _V1) __kr_combine(_Prefix, _V1)
#define __kr_prefixEach2(_Prefix, _V1, _V2) __kr_combine(_Prefix, _V1) , __kr_combine(_Prefix, _V2)
#define __kr_prefixEach3(_Prefix, _V1, _V2, _V3) __kr_combine(_Prefix, _V1) , __kr_combine(_Prefix, _V2) , __kr_combine(_Prefix, _V3)
#define __kr_prefixEach4(_Prefix, _V1, _V2, _V3, _V4) __kr_combine(_Prefix, _V1) , __kr_combine(_Prefix, _V2) , __kr_combine(_Prefix, _V3) , __kr_combine(_Prefix, _V4)
#define __kr_prefixEach5(_Prefix, _V1, _V2, _V3, _V4, _V5) __kr_combine(_Prefix, _V1) , __kr_combine(_Prefix, _V2) , __kr_combine(_Prefix, _V3) , __kr_combine(_Prefix, _V4) , __kr_combine(_Prefix, _V5)
#define __kr_prefixEach6(_Prefix, _V1, _V2, _V3, _V4, _V5, _V6) __kr_combine(_Prefix, _V1) , __kr_combine(_Prefix, _V2) , __kr_combine(_Prefix, _V3) , __kr_combine(_Prefix, _V4) , __kr_combine(_Prefix, _V5) , __kr_combine(_Prefix, _V6)
#define __kr_prefixEach7(_Prefix, _V1, _V2, _V3, _V4, _V5, _V6, _V7) __kr_combine(_Prefix, _V1) , __kr_combine(_Prefix, _V2) , __kr_combine(_Prefix, _V3) , __kr_combine(_Prefix, _V4) , __kr_combine(_Prefix, _V5) , __kr_combine(_Prefix, _V6) , __kr_combine(_Prefix, _V7)
#define __kr_prefixEach8(_Prefix, _V1, _V2, _V3, _V4, _V5, _V6, _V7, _V8) __kr_combine(_Prefix, _V1) , __kr_combine(_Prefix, _V2) , __kr_combine(_Prefix, _V3) , __kr_combine(_Prefix, _V4) , __kr_combine(_Prefix, _V5) , __kr_combine(_Prefix, _V6) , __kr_combine(_Prefix, _V7) , __kr_combine(_Prefix, _V8)
#define __kr_prefixEach9(_Prefix, _V1, _V2, _V3, _V4, _V5, _V6, _V7, _V8, _V9) __kr_combine(_Prefix, _V1) , __kr_combine(_Prefix, _V2) , __kr_combine(_Prefix, _V3) , __kr_combine(_Prefix, _V4) , __kr_combine(_Prefix, _V5) , __kr_combine(_Prefix, _V6) , __kr_combine(_Prefix, _V7) , __kr_combine(_Prefix, _V8) , __kr_combine(_Prefix, _V9)
#define __kr_prefixEach10(_Prefix, _V1, _V2, _V3, _V4, _V5, _V6, _V7, _V8, _V9, _V10) __kr_combine(_Prefix, _V1) , __kr_combine(_Prefix, _V2) , __kr_combine(_Prefix, _V3) , __kr_combine(_Prefix, _V4) , __kr_combine(_Prefix, _V5) , __kr_combine(_Prefix, _V6) , __kr_combine(_Prefix, _V7) , __kr_combine(_Prefix, _V8) , __kr_combine(_Prefix, _V9) , __kr_combine(_Prefix, _V10)
#define __kr_prefixEach11(_Prefix, _V1, _V2, _V3, _V4, _V5, _V6, _V7, _V8, _V9, _V10, _V11) __kr_combine(_Prefix, _V1) , __kr_combine(_Prefix, _V2) , __kr_combine(_Prefix, _V3) , __kr_combine(_Prefix, _V4) , __kr_combine(_Prefix, _V5) , __kr_combine(_Prefix, _V6) , __kr_combine(_Prefix, _V7) , __kr_combine(_Prefix, _V8) , __kr_combine(_Prefix, _V9) , __kr_combine(_Prefix, _V10) , __kr_combine(_Prefix, _V11)
#define __kr_prefixEach12(_Prefix, _V1, _V2, _V3, _V4, _V5, _V6, _V7, _V8, _V9, _V10, _V11, _V12) __kr_combine(_Prefix, _V1) , __kr_combine(_Prefix, _V2) , __kr_combine(_Prefix, _V3) , __kr_combine(_Prefix, _V4) , __kr_combine(_Prefix, _V5) , __kr_combine(_Prefix, _V6) , __kr_combine(_Prefix, _V7) , __kr_combine(_Prefix, _V8) , __kr_combine(_Prefix, _V9) , __kr_combine(_Prefix, _V10) , __kr_combine(_Prefix, _V11) , __kr_combine(_Prefix, _V12)
#define __kr_prefixEach13(_Prefix, _V1, _V2, _V3, _V4, _V5, _V6, _V7, _V8, _V9, _V10, _V11, _V12, _V13) __kr_combine(_Prefix, _V1) , __kr_combine(_Prefix, _V2) , __kr_combine(_Prefix, _V3) , __kr_combine(_Prefix, _V4) , __kr_combine(_Prefix, _V5) , __kr_combine(_Prefix, _V6) , __kr_combine(_Prefix, _V7) , __kr_combine(_Prefix, _V8) , __kr_combine(_Prefix, _V9) , __kr_combine(_Prefix, _V10) , __kr_combine(_Prefix, _V11) , __kr_combine(_Prefix, _V12) , __kr_combine(_Prefix, _V13)
#define __kr_prefixEach14(_Prefix, _V1, _V2, _V3, _V4, _V5, _V6, _V7, _V8, _V9, _V10, _V11, _V12, _V13, _V14) __kr_combine(_Prefix, _V1) , __kr_combine(_Prefix, _V2) , __kr_combine(_Prefix, _V3) , __kr_combine(_Prefix, _V4) , __kr_combine(_Prefix, _V5) , __kr_combine(_Prefix, _V6) , __kr_combine(_Prefix, _V7) , __kr_combine(_Prefix, _V8) , __kr_combine(_Prefix, _V9) , __kr_combine(_Prefix, _V10) , __kr_combine(_Prefix, _V11) , __kr_combine(_Prefix, _V12) , __kr_combine(_Prefix, _V13) , __kr_combine(_Prefix, _V14)
#define __kr_prefixEach15(_Prefix, _V1, _V2, _V3, _V4, _V5, _V6, _V7, _V8, _V9, _V10, _V11, _V12, _V13, _V14, _V15) __kr_combine(_Prefix, _V1) , __kr_combine(_Prefix, _V2) , __kr_combine(_Prefix, _V3) , __kr_combine(_Prefix, _V4) , __kr_combine(_Prefix, _V5) , __kr_combine(_Prefix, _V6) , __kr_combine(_Prefix, _V7) , __kr_combine(_Prefix, _V8) , __kr_combine(_Prefix, _V9) , __kr_combine(_Prefix, _V10) , __kr_combine(_Prefix, _V11) , __kr_combine(_Prefix, _V12) , __kr_combine(_Prefix, _V13) , __kr_combine(_Prefix, _V14) , __kr_combine(_Prefix, _V15)
#define __kr_prefixEach16(_Prefix, _V1, _V2, _V3, _V4, _V5, _V6, _V7, _V8, _V9, _V10, _V11, _V12, _V13, _V14, _V15, _V16) __kr_combine(_Prefix, _V1) , __kr_combine(_Prefix, _V2) , __kr_combine(_Prefix, _V3) , __kr_combine(_Prefix, _V4) , __kr_combine(_Prefix, _V5) , __kr_combine(_Prefix, _V6) , __kr_combine(_Prefix, _V7) , __kr_combine(_Prefix, _V8) , __kr_combine(_Prefix, _V9) , __kr_combine(_Prefix, _V10) , __kr_combine(_Prefix, _V11) , __kr_combine(_Prefix, _V12) , __kr_combine(_Prefix, _V13) , __kr_combine(_Prefix, _V14) , __kr_combine(_Prefix, _V15) , __kr_combine(_Prefix, _V16)
