#define __kr_surroundEach1(_Prefix, _Suffix, _V1) __kr_surround(_Prefix, _Suffix, _V1)
#define __kr_surroundEach2(_Prefix, _Suffix, _V1, _V2) __kr_surround(_Prefix, _Suffix, _V1) , __kr_surround(_Prefix, _Suffix, _V2)
#define __kr_surroundEach3(_Prefix, _Suffix, _V1, _V2, _V3) __kr_surround(_Prefix, _Suffix, _V1) , __kr_surround(_Prefix, _Suffix, _V2) , __kr_surround(_Prefix, _Suffix, _V3)
#define __kr_surroundEach4(_Prefix, _Suffix, _V1, _V2, _V3, _V4) __kr_surround(_Prefix, _Suffix, _V1) , __kr_surround(_Prefix, _Suffix, _V2) , __kr_surround(_Prefix, _Suffix, _V3) , __kr_surround(_Prefix, _Suffix, _V4)
#define __kr_surroundEach5(_Prefix, _Suffix, _V1, _V2, _V3, _V4, _V5) __kr_surround(_Prefix, _Suffix, _V1) , __kr_surround(_Prefix, _Suffix, _V2) , __kr_surround(_Prefix, _Suffix, _V3) , __kr_surround(_Prefix, _Suffix, _V4) , __kr_surround(_Prefix, _Suffix, _V5)
#define __kr_surroundEach6(_Prefix, _Suffix, _V1, _V2, _V3, _V4, _V5, _V6) __kr_surround(_Prefix, _Suffix, _V1) , __kr_surround(_Prefix, _Suffix, _V2) , __kr_surround(_Prefix, _Suffix, _V3) , __kr_surround(_Prefix, _Suffix, _V4) , __kr_surround(_Prefix, _Suffix, _V5) , __kr_surround(_Prefix, _Suffix, _V6)
#define __kr_surroundEach7(_Prefix, _Suffix, _V1, _V2, _V3, _V4, _V5, _V6, _V7) __kr_surround(_Prefix, _Suffix, _V1) , __kr_surround(_Prefix, _Suffix, _V2) , __kr_surround(_Prefix, _Suffix, _V3) , __kr_surround(_Prefix, _Suffix, _V4) , __kr_surround(_Prefix, _Suffix, _V5) , __kr_surround(_Prefix, _Suffix, _V6) , __kr_surround(_Prefix, _Suffix, _V7)
#define __kr_surroundEach8(_Prefix, _Suffix, _V1, _V2, _V3, _V4, _V5, _V6, _V7, _V8) __kr_surround(_Prefix, _Suffix, _V1) , __kr_surround(_Prefix, _Suffix, _V2) , __kr_surround(_Prefix, _Suffix, _V3) , __kr_surround(_Prefix, _Suffix, _V4) , __kr_surround(_Prefix, _Suffix, _V5) , __kr_surround(_Prefix, _Suffix, _V6) , __kr_surround(_Prefix, _Suffix, _V7) , __kr_surround(_Prefix, _Suffix, _V8)
#define __kr_surroundEach9(_Prefix, _Suffix, _V1, _V2, _V3, _V4, _V5, _V6, _V7, _V8, _V9) __kr_surround(_Prefix, _Suffix, _V1) , __kr_surround(_Prefix, _Suffix, _V2) , __kr_surround(_Prefix, _Suffix, _V3) , __kr_surround(_Prefix, _Suffix, _V4) , __kr_surround(_Prefix, _Suffix, _V5) , __kr_surround(_Prefix, _Suffix, _V6) , __kr_surround(_Prefix, _Suffix, _V7) , __kr_surround(_Prefix, _Suffix, _V8) , __kr_surround(_Prefix, _Suffix, _V9)
#define __kr_surroundEach10(_Prefix, _Suffix, _V1, _V2, _V3, _V4, _V5, _V6, _V7, _V8, _V9, _V10) __kr_surround(_Prefix, _Suffix, _V1) , __kr_surround(_Prefix, _Suffix, _V2) , __kr_surround(_Prefix, _Suffix, _V3) , __kr_surround(_Prefix, _Suffix, _V4) , __kr_surround(_Prefix, _Suffix, _V5) , __kr_surround(_Prefix, _Suffix, _V6) , __kr_surround(_Prefix, _Suffix, _V7) , __kr_surround(_Prefix, _Suffix, _V8) , __kr_surround(_Prefix, _Suffix, _V9) , __kr_surround(_Prefix, _Suffix, _V10)
#define __kr_surroundEach11(_Prefix, _Suffix, _V1, _V2, _V3, _V4, _V5, _V6, _V7, _V8, _V9, _V10, _V11) __kr_surround(_Prefix, _Suffix, _V1) , __kr_surround(_Prefix, _Suffix, _V2) , __kr_surround(_Prefix, _Suffix, _V3) , __kr_surround(_Prefix, _Suffix, _V4) , __kr_surround(_Prefix, _Suffix, _V5) , __kr_surround(_Prefix, _Suffix, _V6) , __kr_surround(_Prefix, _Suffix, _V7) , __kr_surround(_Prefix, _Suffix, _V8) , __kr_surround(_Prefix, _Suffix, _V9) , __kr_surround(_Prefix, _Suffix, _V10) , __kr_surround(_Prefix, _Suffix, _V11)
#define __kr_surroundEach12(_Prefix, _Suffix, _V1, _V2, _V3, _V4, _V5, _V6, _V7, _V8, _V9, _V10, _V11, _V12) __kr_surround(_Prefix, _Suffix, _V1) , __kr_surround(_Prefix, _Suffix, _V2) , __kr_surround(_Prefix, _Suffix, _V3) , __kr_surround(_Prefix, _Suffix, _V4) , __kr_surround(_Prefix, _Suffix, _V5) , __kr_surround(_Prefix, _Suffix, _V6) , __kr_surround(_Prefix, _Suffix, _V7) , __kr_surround(_Prefix, _Suffix, _V8) , __kr_surround(_Prefix, _Suffix, _V9) , __kr_surround(_Prefix, _Suffix, _V10) , __kr_surround(_Prefix, _Suffix, _V11) , __kr_surround(_Prefix, _Suffix, _V12)
#define __kr_surroundEach13(_Prefix, _Suffix, _V1, _V2, _V3, _V4, _V5, _V6, _V7, _V8, _V9, _V10, _V11, _V12, _V13) __kr_surround(_Prefix, _Suffix, _V1) , __kr_surround(_Prefix, _Suffix, _V2) , __kr_surround(_Prefix, _Suffix, _V3) , __kr_surround(_Prefix, _Suffix, _V4) , __kr_surround(_Prefix, _Suffix, _V5) , __kr_surround(_Prefix, _Suffix, _V6) , __kr_surround(_Prefix, _Suffix, _V7) , __kr_surround(_Prefix, _Suffix, _V8) , __kr_surround(_Prefix, _Suffix, _V9) , __kr_surround(_Prefix, _Suffix, _V10) , __kr_surround(_Prefix, _Suffix, _V11) , __kr_surround(_Prefix, _Suffix, _V12) , __kr_surround(_Prefix, _Suffix, _V13)
#define __kr_surroundEach14(_Prefix, _Suffix, _V1, _V2, _V3, _V4, _V5, _V6, _V7, _V8, _V9, _V10, _V11, _V12, _V13, _V14) __kr_surround(_Prefix, _Suffix, _V1) , __kr_surround(_Prefix, _Suffix, _V2) , __kr_surround(_Prefix, _Suffix, _V3) , __kr_surround(_Prefix, _Suffix, _V4) , __kr_surround(_Prefix, _Suffix, _V5) , __kr_surround(_Prefix, _Suffix, _V6) , __kr_surround(_Prefix, _Suffix, _V7) , __kr_surround(_Prefix, _Suffix, _V8) , __kr_surround(_Prefix, _Suffix, _V9) , __kr_surround(_Prefix, _Suffix, _V10) , __kr_surround(_Prefix, _Suffix, _V11) , __kr_surround(_Prefix, _Suffix, _V12) , __kr_surround(_Prefix, _Suffix, _V13) , __kr_surround(_Prefix, _Suffix, _V14)
#define __kr_surroundEach15(_Prefix, _Suffix, _V1, _V2, _V3, _V4, _V5, _V6, _V7, _V8, _V9, _V10, _V11, _V12, _V13, _V14, _V15) __kr_surround(_Prefix, _Suffix, _V1) , __kr_surround(_Prefix, _Suffix, _V2) , __kr_surround(_Prefix, _Suffix, _V3) , __kr_surround(_Prefix, _Suffix, _V4) , __kr_surround(_Prefix, _Suffix, _V5) , __kr_surround(_Prefix, _Suffix, _V6) , __kr_surround(_Prefix, _Suffix, _V7) , __kr_surround(_Prefix, _Suffix, _V8) , __kr_surround(_Prefix, _Suffix, _V9) , __kr_surround(_Prefix, _Suffix, _V10) , __kr_surround(_Prefix, _Suffix, _V11) , __kr_surround(_Prefix, _Suffix, _V12) , __kr_surround(_Prefix, _Suffix, _V13) , __kr_surround(_Prefix, _Suffix, _V14) , __kr_surround(_Prefix, _Suffix, _V15)
#define __kr_surroundEach16(_Prefix, _Suffix, _V1, _V2, _V3, _V4, _V5, _V6, _V7, _V8, _V9, _V10, _V11, _V12, _V13, _V14, _V15, _V16) __kr_surround(_Prefix, _Suffix, _V1) , __kr_surround(_Prefix, _Suffix, _V2) , __kr_surround(_Prefix, _Suffix, _V3) , __kr_surround(_Prefix, _Suffix, _V4) , __kr_surround(_Prefix, _Suffix, _V5) , __kr_surround(_Prefix, _Suffix, _V6) , __kr_surround(_Prefix, _Suffix, _V7) , __kr_surround(_Prefix, _Suffix, _V8) , __kr_surround(_Prefix, _Suffix, _V9) , __kr_surround(_Prefix, _Suffix, _V10) , __kr_surround(_Prefix, _Suffix, _V11) , __kr_surround(_Prefix, _Suffix, _V12) , __kr_surround(_Prefix, _Suffix, _V13) , __kr_surround(_Prefix, _Suffix, _V14) , __kr_surround(_Prefix, _Suffix, _V15) , __kr_surround(_Prefix, _Suffix, _V16)
